{
    "env": {
        "es6": true
    },
    "defaultSeverity": "error",
    "extends": [
        "tslint:recommended"
    ],
    "parserOptions": {
        "sourceType": "module",
        "ecmaFeatures": {
            "impliedStrict": true
        }
    },
    "jsRules": {
        "array-bracket-spacing": "never",
        "ter-no-self-compare": true,
        "block-spacing": [true, "never"],
        "brace-style": [
            true,
            "1tbs",
            {
                "allowSingleLine": true
            }
        ],
		"no-unexpected-multiline": true,
        "ter-indent": [true, "tab"],
        "ter-func-call-spacing": [true, "always"],
		"sort-imports": [true],
		"space-in-parens": [true, "never"],
		"ter-arrow-body-style": [true, "always"],
		"ter-arrow-spacing": [true],
		"ter-prefer-arrow-callback": [true],
		"no-extra-boolean-cast": true,
		"no-extra-semi": true,
		"no-empty-character-class": true,
		"no-invalid-regexp": true,

		"no-regex-spaces": true,
		"ter-no-mixed-spaces-and-tabs": { "type": "tabs", "smartTabs": true }
    },
    "rules": {
        "curly": true,
        "quotemark": [true, "single", "avoid-escape"],
        "switch-default": true,
        "triple-equals": [true, "allow-null-check", "allow-undefined-check"],
        "forin": false,
        "no-empty": true,
        "no-switch-case-fall-through": false,
        "no-invalid-this": true,
        "label-position": false,
        "ban": [true, ["alert", "confirm", "prompt"]],
        "no-unused-expression": true,
        "no-construct": true,
        "no-duplicate-variable": true,
        "no-shadowed-variable": true,
		"arrow-parens": true,
        "variable-name": [true, "ban-keywords", "check-format", "allow-leading-underscore", "allow-trailing-underscore", "allow-pascal-case"],
        "eofline": true,
        "indent": [true, "tabs"],
        "new-parens": true,
        "ter-newline-after-var": false,
        "no-bitwise": true,
		"no-irregular-whitespace": [true],
        "no-consecutive-blank-lines": [true, 2],
        "no-trailing-whitespace": [true, "ignore-comments"],
        "object-literal-key-quotes": [true, "as-needed"],
        "object-literal-sort-keys": false,
        "semicolon": [true, "always"],
        "comment-format": [true, "check-lowercase", {"ignore-words": ["TODO"]}],
        "no-var-keyword": true,
        "object-literal-shorthand": true,
        "prefer-const": true,
        "no-sparse-arrays": [true],
        "use-isnan": true,
        "no-unsafe-finally": true,
        "jsdoc-format": true,
        "space-before-function-paren": [false, "always"],
        "max-line-length": [true, 200],
        "no-console": [false],
        "no-angle-bracket-type-assertion": false,
        "trailing-comma": false,
        "import-spacing": true,
		"member-ordering": false,
		"arrow-return-shorthand": true,
		"type-literal-delimiter": true
    },
    "rulesDirectory": []
}
